Algunas funciones favoritas de {broom}
…
---
class: left, middle
## augment() 

### Agregar columnas con información relacionada a los datos que se modelaron
.left[

```r
augment(model_fit)
```

```
## # A tibble: 30 x 9
##    .rownames   Species Elevation .fitted .resid   .hat .sigma .cooksd .std.resid
##    <chr>         <dbl>     <dbl>   <dbl>  <dbl>  <dbl>  <dbl>   <dbl>      <dbl>
##  1 Baltra           58       346    80.8 -22.8  0.0334   80.0 1.50e-3    -0.295 
##  2 Bartolome        31       109    33.2  -2.22 0.0464   80.1 2.03e-5    -0.0289
##  3 Caldwell          3       114    34.2 -31.2  0.0459   79.9 3.97e-3    -0.406 
##  4 Champion         25        46    20.6   4.43 0.0535   80.1 9.45e-5     0.0579
##  5 Coamano           2        77    26.8 -24.8  0.0498   80.0 2.74e-3    -0.323 
##  6 Daphne.Maj…      18       119    35.2 -17.2  0.0454   80.0 1.19e-3    -0.224 
##  7 Daphne.Min…      24        93    30.0  -6.01 0.0480   80.1 1.55e-4    -0.0783
##  8 Darwin           10       168    45.1 -35.1  0.0411   79.8 4.44e-3    -0.455 
##  9 Eden              8        71    25.6 -17.6  0.0504   80.0 1.40e-3    -0.229 
## 10 Enderby           2       112    33.8 -31.8  0.0461   79.9 4.14e-3    -0.414 
## # … with 20 more rows
```
…
